<?xml version="1.0" encoding="UTF-8"?>
<svg width="29px" height="29px" viewBox="0 0 29 29" version="1.1" xmlns="http://www.w3.org/2000/svg" xmlns:xlink="http://www.w3.org/1999/xlink">
    <!-- Generator: Sketch 41.2 (35397) - http://www.bohemiancoding.com/sketch -->
    <title>1480462607_gift</title>
    <desc>Created with Sketch.</desc>
    <defs></defs>
    <g id="Desktop" stroke="none" stroke-width="1" fill="none" fill-rule="evenodd" opacity="1">
        <g id="LP-desktop" transform="translate(-151.000000, -1721.000000)">
            <g id="Group-8" transform="translate(115.000000, 1220.000000)">
                <g id="Group-6">
                    <g id="Group-10" transform="translate(36.000000, 101.000000)">
                        <g id="1480462607_gift" transform="translate(0.000000, 400.000000)">
                            <g id="Layer_1">
                                <polyline id="Shape" stroke="#FFFFFF" stroke-width="1.16" points="11.6 13.34 1.16 13.34 1.16 8.12 27.84 8.12 27.84 13.34 17.4 13.34"></polyline>
                                <rect id="Rectangle-path" stroke="#FFFFFF" stroke-width="1.16" x="11.6" y="8.12" width="5.8" height="19.72"></rect>
                                <rect id="Rectangle-path" x="0" y="0" width="29" height="29"></rect>
                                <polyline id="Shape" stroke="#FFFFFF" stroke-width="1.16" points="11.6 13.34 2.32 13.34 2.32 27.84 26.68 27.84 26.68 13.34 17.4 13.34"></polyline>
                                <path d="M14.5,7.54 L9.86,7.54 C7.29756,7.54 4.64,6.04302 4.64,3.48 C4.64,2.41976 5.14924,1.16 7.14502,1.16 C11.15688,1.16 11.23054,7.54 14.5,7.54 Z" id="Shape" stroke="#FFFFFF" stroke-width="1.16"></path>
                                <path d="M14.5,7.54 L19.14,7.54 C21.70244,7.54 24.36,6.04302 24.36,3.48 C24.36,2.41976 23.85076,1.16 21.85498,1.16 C17.84312,1.16 17.76946,7.54 14.5,7.54 Z" id="Shape" stroke="#FFFFFF" stroke-width="1.16"></path>
                            </g>
                        </g>
                    </g>
                </g>
            </g>
        </g>
    </g>
</svg>